business_id,name,time,ip
1921,"Rachels Ladies Saloon,Oud Metha","2016-05-17 07:05",127.0.0.1
529,"Fellaa Beauty Care & Spa,Al Karama","2016-05-17 02:05",127.0.0.1
529,"Fellaa Beauty Care & Spa,Al Karama","2016-05-17 02:05",127.0.0.1
529,"Fellaa Beauty Care & Spa,Al Karama","2016-05-17 02:05",127.0.0.1
